{
  "development": {
    "username": "northwind",
    "password": "password",
    "database": "books_development",
    "host": "127.0.0.1",
    "dialect": "postgres"
  },
  "test": {
    "username": "root", 
    "password": null,
    "database": "books_test",
    "host": "127.0.0.1",
    "dialect": "mysql"
  },
  "production": {
    "username": "root",
    "password": null,
    "database": "books_production",
    "host": "127.0.0.1",
    "dialect": "mysql"
  }
}
